^C:\USERS\USER-PC\JACOB\ADVANCED PROGRAMMING\TAKI\TAKI-SERVER\TAKI-SERVER\PLAYER.CPP|C:\USERS\USER-PC\JACOB\ADVANCED PROGRAMMING\TAKI\TAKI-SERVER\TAKI-SERVER\SERVER.CPP
C:\USERS\USER-PC\JACOB\ADVANCED PROGRAMMING\TAKI\TAKI-SERVER\TAKI-SERVER\DEBUG\VC120.PDB
C:\USERS\USER-PC\JACOB\ADVANCED PROGRAMMING\TAKI\TAKI-SERVER\TAKI-SERVER\DEBUG\VC120.IDB
C:\USERS\USER-PC\JACOB\ADVANCED PROGRAMMING\TAKI\TAKI-SERVER\TAKI-SERVER\DEBUG\PLAYER.OBJ
C:\USERS\USER-PC\JACOB\ADVANCED PROGRAMMING\TAKI\TAKI-SERVER\TAKI-SERVER\DEBUG\SERVER.OBJ
^C:\USERS\USER-PC\JACOB\ADVANCED PROGRAMMING\TAKI\TAKI-SERVER\TAKI-SERVER\PLAYER.CPP
C:\USERS\USER-PC\JACOB\ADVANCED PROGRAMMING\TAKI\TAKI-SERVER\TAKI-SERVER\DEBUG\VC120.PDB
^C:\USERS\USER-PC\JACOB\ADVANCED PROGRAMMING\TAKI\TAKI-SERVER\TAKI-SERVER\SERVER.CPP
C:\USERS\USER-PC\JACOB\ADVANCED PROGRAMMING\TAKI\TAKI-SERVER\TAKI-SERVER\DEBUG\VC120.PDB
